Лінійна регресія - A Hugo website
…
# отримуємо перетворені дані із рецепту
df_model <- juice(rec)

df_model

## # A tibble: 2,930 x 2
##      area target
##     <dbl>  <dbl>
##  1  2.49    12.3
##  2  0.525   11.6
##  3  0.926   12.1
##  4  0.446   12.4
##  5  0.865   12.2
##  6  0.227   12.2
##  7 -1.16    12.3
##  8 -1.12    12.2
##  9 -0.978   12.4
## 10 -0.332   12.1
## # ... with 2,920 more rows
…
Запустимо градієнтний спуск на 100-а ітераціях із швидкістю навчання 0.1:

iter_for_model <- 100
learning_rate <- 0.1

coef_grad <- get_linear_coef_grad(
  x = X,
  y = Y,
  coef = w,
  count_iter = iter_for_model,
  alpha = learning_rate
)
coef_grad

## # A tibble: 100 x 4
##    iteration  cost     w_1    w_2
##        <int> <dbl>   <dbl>  <dbl>
##  1         1 580.  -16.8   -18.0 
##  2         2 470.  -13.9   -16.2 
##  3         3 380.  -11.3   -14.5 
##  4         4 308.   -8.99  -13.1 
##  5         5 250.   -6.89  -11.8 
##  6         6 202.   -5.00  -10.6 
##  7         7 164.   -3.29   -9.49
##  8         8 133.   -1.76   -8.53
##  9         9 108.   -0.385  -7.66
## 10        10  87.1   0.856  -6.88
## # ... with 90 more rows
…
